Retrieve state-level population denominators — get_pop_state • narcan
…
    a tibble with columns state_fips, year, age,
  sex, race, hispanic_origin, pop, and metadata

    Details

    Note the default-span asymmetry between schemes: scheme = "single"
defaults to the frozen 5-year window (2020-2024; pass pre-2020 years
to reach the 2000-2024 backfill), whereas scheme = "bridged" defaults
to its full 56-year span (1969-2024).

    Examples

get_pop_state(states = "06", years = 2024)
#> # A tibble: 216 × 10
#>    state_fips  year   age sex    race               scheme source vintage    pop
#>    <chr>      <int> <dbl> <chr>  <chr>              <chr>  <chr>  <chr>    <int>
#>  1 06          2024     0 female american_indian_o… single censu… V2024    22881
#>  2 06          2024     0 female asian_only         single censu… V2024   145503
#>  3 06          2024     0 female black_only         single censu… V2024    64521
#>  4 06          2024     0 female multiracial        single censu… V2024    88452
#>  5 06          2024     0 female nhopi_only         single censu… V2024     5698
#>  6 06          2024     0 female white_only         single censu… V2024   693613
#>  7 06          2024     0 male   american_indian_o… single censu… V2024    24038
#>  8 06          2024     0 male   asian_only         single censu… V2024   154491
#>  9 06          2024     0 male   black_only         single censu… V2024    67363
#> 10 06          2024     0 male   multiracial        single censu… V2024    92709
#> # ℹ 206 more rows
#> # ℹ 1 more variable: hispanic_origin <chr>
…
