…
## See also

[`add_pop_counts`](https://mkiang.github.io/narcan/reference/add_pop_counts.md)
for the death-to-population JOIN, which keys on a `hispanic_origin`
COLUMN in `by_vars`; this accessor instead takes a `hispanic_origin=`
filter ARGUMENT (same name, different mechanism).

## Examples

``` r
get_pop_state(states = "06", years = 2024)
#> # A tibble: 216 × 10
#>    state_fips  year   age sex    race               scheme source vintage    pop
#>    <chr>      <int> <dbl> <chr>  <chr>              <chr>  <chr>  <chr>    <int>
#>  1 06          2024     0 female american_indian_o… single censu… V2024    22881
#>  2 06          2024     0 female asian_only         single censu… V2024   145503
#>  3 06          2024     0 female black_only         single censu… V2024    64521
#>  4 06          2024     0 female multiracial        single censu… V2024    88452
#>  5 06          2024     0 female nhopi_only         single censu… V2024     5698
#>  6 06          2024     0 female white_only         single censu… V2024   693613
#>  7 06          2024     0 male   american_indian_o… single censu… V2024    24038
#>  8 06          2024     0 male   asian_only         single censu… V2024   154491
#>  9 06          2024     0 male   black_only         single censu… V2024    67363
#> 10 06          2024     0 male   multiracial        single censu… V2024    92709
#> # ℹ 206 more rows
#> # ℹ 1 more variable: hispanic_origin <chr>
```
